{
  "version": "1.0",
  "tickTimeLength": 1,
  "tradePairs": [
    {
      "ticker": "BNB/USDT",
      "active": true,
      "buyPriceCeiling": 80,
      "decreesBuyPriceAfterBuy": 0.10,
      "maxNumberOfBuyOrders": 5,
      "ticksToWaitBeforeNextBuy": 160,
      "diffStakeInBaseCurrencyToSell": 1,
      "decreseBuyPriceAtStart": 0.05,
      "diffInBaseCurrencyToResetBuyPrice": 1,
      "ValueInBaseCurrencyToIncreaseDiffStakeAfterSell": 0.025,
      "percentageIncreaseofQuoteCurrencyForBuying": 200,
      "sound": true
    },
    {
      "ticker": "XMR/USDT",
      "active": true,
      "buyPriceCeiling": 170,
      "decreesBuyPriceAfterBuy": 0.10,
      "maxNumberOfBuyOrders": 2,
      "ticksToWaitBeforeNextBuy": 220,
      "diffStakeInBaseCurrencyToSell": 1.5,
      "decreseBuyPriceAtStart": 0.10,
      "diffInBaseCurrencyToResetBuyPrice": 1,
      "ValueInBaseCurrencyToIncreaseDiffStakeAfterSell": 0.10,
      "percentageIncreaseofQuoteCurrencyForBuying": 55,
      "sound": true
    },
    {
      "ticker": "DOT/USDT",
      "active": true,
      "buyPriceCeiling": 23,
      "decreesBuyPriceAfterBuy": 0.05,
      "maxNumberOfBuyOrders": 2,
      "ticksToWaitBeforeNextBuy": 25,
      "diffStakeInBaseCurrencyToSell": 0.30,
      "decreseBuyPriceAtStart": 0.03,
      "diffInBaseCurrencyToResetBuyPrice": 0.50,
      "ValueInBaseCurrencyToIncreaseDiffStakeAfterSell": 0.03,
      "percentageIncreaseofQuoteCurrencyForBuying": 10,
      "sound": true
    },
    {
      "ticker": "BCH/USDT",
      "active": true,
      "buyPriceCeiling": 500,
      "decreesBuyPriceAfterBuy": 0.10,
      "maxNumberOfBuyOrders": 3,
      "ticksToWaitBeforeNextBuy": 300,
      "diffStakeInBaseCurrencyToSell": 3.5,
      "decreseBuyPriceAtStart": 0.10,
      "diffInBaseCurrencyToResetBuyPrice": 1,
      "ValueInBaseCurrencyToIncreaseDiffStakeAfterSell": 0.10,
      "percentageIncreaseofQuoteCurrencyForBuying": 10,
      "sound": true
    },
    {
      "ticker": "ADA/USDT",
      "active": true,
      "buyPriceCeiling": 0.75,
      "decreesBuyPriceAfterBuy": 0.01,
      "maxNumberOfBuyOrders": 4,
      "ticksToWaitBeforeNextBuy": 15,
      "diffStakeInBaseCurrencyToSell": 0.0085,
      "decreseBuyPriceAtStart": 0.0003,
      "diffInBaseCurrencyToResetBuyPrice": 0.01,
      "ValueInBaseCurrencyToIncreaseDiffStakeAfterSell": 0.0002,
      "percentageIncreaseofQuoteCurrencyForBuying": 15,
      "sound": true
    },
    {
      "ticker": "XLM/USDT",
      "active": true,
      "buyPriceCeiling": 0.7,
      "decreesBuyPriceAfterBuy": 0.003,
      "maxNumberOfBuyOrders": 4,
      "ticksToWaitBeforeNextBuy": 10,
      "diffStakeInBaseCurrencyToSell": 0.008,
      "decreseBuyPriceAtStart": 0.0003,
      "diffInBaseCurrencyToResetBuyPrice": 0.01,
      "ValueInBaseCurrencyToIncreaseDiffStakeAfterSell": 0.0002,
      "percentageIncreaseofQuoteCurrencyForBuying": 15,
      "sound": true
    },
    {
      "ticker": "BTC/USDT",
      "active": true,
      "buyPriceCeiling": 45000,
      "decreesBuyPriceAfterBuy": 40,
      "maxNumberOfBuyOrders": 4,
      "ticksToWaitBeforeNextBuy": 400,
      "diffStakeInBaseCurrencyToSell": 220,
      "decreseBuyPriceAtStart": 30,
      "diffInBaseCurrencyToResetBuyPrice": 100,
      "ValueInBaseCurrencyToIncreaseDiffStakeAfterSell": 5,
      "percentageIncreaseofQuoteCurrencyForBuying": 50,
      "sound": true
    },
    {
      "ticker": "TRX/USDT",
      "active": true,
      "buyPriceCeiling": 0.03700,
      "decreesBuyPriceAfterBuy": 0.00040,
      "maxNumberOfBuyOrders": 3,
      "ticksToWaitBeforeNextBuy": 40,
      "diffStakeInBaseCurrencyToSell": 0.00060,
      "decreseBuyPriceAtStart": 0.00010,
      "diffInBaseCurrencyToResetBuyPrice": 0.00035,
      "ValueInBaseCurrencyToIncreaseDiffStakeAfterSell": 0.00003,
      "percentageIncreaseofQuoteCurrencyForBuying": 20,
      "sound": true
    },
    {
      "ticker": "LTC/USDT",
      "active": true,
      "buyPriceCeiling": 170,
      "decreesBuyPriceAfterBuy": 0.30,
      "maxNumberOfBuyOrders": 2,
      "ticksToWaitBeforeNextBuy": 160,
      "diffStakeInBaseCurrencyToSell": 3,
      "decreseBuyPriceAtStart": 0.05,
      "diffInBaseCurrencyToResetBuyPrice": 1,
      "ValueInBaseCurrencyToIncreaseDiffStakeAfterSell": 0.05,
      "percentageIncreaseofQuoteCurrencyForBuying": 20,
      "sound": true
    },
    {
      "ticker": "LINK/USDT",
      "active": true,
      "buyPriceCeiling": 40,
      "decreesBuyPriceAfterBuy": 0.05,
      "maxNumberOfBuyOrders": 3,
      "ticksToWaitBeforeNextBuy": 10,
      "diffStakeInBaseCurrencyToSell": 0.35,
      "decreseBuyPriceAtStart": 0.03,
      "diffInBaseCurrencyToResetBuyPrice": 1,
      "ValueInBaseCurrencyToIncreaseDiffStakeAfterSell": 0.015,
      "percentageIncreaseofQuoteCurrencyForBuying": 30,
      "sound": true
    },
    {
      "ticker": "LIT/USDT",
      "active": true,
      "buyPriceCeiling": 10,
      "decreesBuyPriceAfterBuy": 0.05,
      "maxNumberOfBuyOrders": 4,
      "ticksToWaitBeforeNextBuy": 20,
      "diffStakeInBaseCurrencyToSell": 0.20,
      "decreseBuyPriceAtStart": 0.05,
      "diffInBaseCurrencyToResetBuyPrice": 0.5,
      "ValueInBaseCurrencyToIncreaseDiffStakeAfterSell": 0.02,
      "percentageIncreaseofQuoteCurrencyForBuying": 10,
      "sound": true
    },
    {
      "ticker": "ETH/USDT",
      "active": true,
      "buyPriceCeiling": 2000,
      "decreesBuyPriceAfterBuy": 5,
      "maxNumberOfBuyOrders": 3,
      "ticksToWaitBeforeNextBuy": 400,
      "diffStakeInBaseCurrencyToSell": 5,
      "decreseBuyPriceAtStart": 0.20,
      "diffInBaseCurrencyToResetBuyPrice": 5,
      "ValueInBaseCurrencyToIncreaseDiffStakeAfterSell": 0.30,
      "percentageIncreaseofQuoteCurrencyForBuying": 20,
      "sound": true
    }
  ]
}
